<?xml version="1.0" encoding="utf-8"?>
<!-- Generator: Adobe Illustrator 19.0.0, SVG Export Plug-In . SVG Version: 6.00 Build 0)  -->
<svg version="1.1" id="Layer_1" xmlns="http://www.w3.org/2000/svg" xmlns:xlink="http://www.w3.org/1999/xlink" x="0px" y="0px" width="16px" height="32px"
	 viewBox="0 0 16 32" style="enable-background:new 0 0 16 32;" xml:space="preserve">
<style type="text/css">
	.st0{fill:#666666;}
	.st1{fill:#3B5998;}
</style>
<g id="XMLID_1_">
	<path class="st0" d="M2,0C0.9,0,0,0.9,0,2v12c0,1.1,0.9,2,2,2h6.6V9.6H6.2V7.2h2.4V5.4c0-2.1,1.3-3,3.2-3c0.9,0,1.4,0.1,1.6,0.1
		v2.3h-1.1c-1,0-1.3,0.5-1.3,1.2v1.2h2.4l-0.6,2.4H11V16h3c1.1,0,2-0.9,2-2V2c0-1.1-0.9-2-2-2H2z"/>
	<path class="st1" d="M2,16c-1.1,0-2,0.9-2,2v12c0,1.1,0.9,2,2,2h6.6v-6.4H6.2v-2.4h2.4v-1.8c0-2.1,1.3-3,3.2-3
		c0.9,0,1.4,0.1,1.6,0.1v2.3h-1.1c-1,0-1.3,0.5-1.3,1.2v1.2h2.4l-0.6,2.4H11V32h3c1.1,0,2-0.9,2-2V18c0-1.1-0.9-2-2-2H2z"/>
</g>
</svg>
